…
``` r
# What is the number and percentage of missing values grouped by each
# observation?
miss_case_summary(loans)
```

    ## # A tibble: 614 × 3
    ##     case n_miss pct_miss
    ##    <int>  <int>    <dbl>
    ##  1   229      2    16.7 
    ##  2   237      2    16.7 
    ##  3   336      2    16.7 
    ##  4   412      2    16.7 
    ##  5   436      2    16.7 
    ##  6   461      2    16.7 
    ##  7   601      2    16.7 
    ##  8     1      1     8.33
    ##  9    17      1     8.33
    ## 10    25      1     8.33
    ## # ℹ 604 more rows
…
``` r
# What is the number and percentage of missing values grouped by each
# observation?
miss_case_summary(loans_imputed)
```

    ## # A tibble: 614 × 3
    ##     case n_miss pct_miss
    ##    <int>  <int>    <dbl>
    ##  1   229      2    16.7 
    ##  2   436      2    16.7 
    ##  3    96      1     8.33
    ##  4   108      1     8.33
    ##  5   112      1     8.33
    ##  6   115      1     8.33
    ##  7   121      1     8.33
    ##  8   159      1     8.33
    ##  9   171      1     8.33
    ## 10   189      1     8.33
    ## # ℹ 604 more rows
…
``` r
print(loans_imputed_testing)
```

    ## # A tibble: 122 × 12
    ##    Gender Married Dependents Education    SelfEmployed ApplicantIncome
    ##    <chr>  <chr>   <chr>      <chr>        <chr>                  <dbl>
    ##  1 Male   No      0          Graduate     No                      6000
    ##  2 Male   Yes     0          Not Graduate No                      2333
    ##  3 Female No      0          Graduate     No                      3510
    ##  4 Male   Yes     0          Not Graduate No                      7660
    ##  5 Male   Yes     1          Graduate     Yes                     3717
    ##  6 Male   No      0          Not Graduate No                      1442
    ##  7 Male   No      0          Graduate     No                      3167
    ##  8 Male   No      0          Graduate     No                      1800
    ##  9 Male   Yes     0          Graduate     No                      5821
    ## 10 Male   Yes     0          Graduate     No                      3366
    ## # ℹ 112 more rows
    ## # ℹ 6 more variables: CoapplicantIncome <dbl>, LoanAmount <dbl>,
    ## #   LoanAmountTerm <dbl>, CreditHistory <dbl>, PropertyArea <chr>, Status <fct>
…
